<mxfile host="Electron" modified="2023-12-03T22:49:04.515Z" agent="Mozilla/5.0 (X11; Linux x86_64) AppleWebKit/537.36 (KHTML, like Gecko) draw.io/22.1.2 Chrome/114.0.5735.289 Electron/25.9.4 Safari/537.36" etag="uFn2-UrT0XSCb0v7Iz24" version="22.1.2" type="device">
  <diagram name="Strona-1" id="1gCYM17sZn_meEB6_KCI">
    <mxGraphModel dx="655" dy="391" grid="1" gridSize="10" guides="1" tooltips="1" connect="1" arrows="1" fold="1" page="1" pageScale="1" pageWidth="1600" pageHeight="900" math="0" shadow="0">
      <root>
        <mxCell id="0" />
        <mxCell id="1" parent="0" />
        <mxCell id="7oJ1Z98XVnd3HlHeFV2i-9" value="" style="group" parent="1" vertex="1" connectable="0">
          <mxGeometry x="610" y="270" width="290" height="60" as="geometry" />
        </mxCell>
        <mxCell id="7oJ1Z98XVnd3HlHeFV2i-10" value="&lt;font style=&quot;font-size: 15px;&quot;&gt;Input text&lt;/font&gt;" style="fillColor=none;strokeColor=none;html=1;fontSize=12;fontStyle=0;align=left;fontColor=#1A1A1A;fontStyle=1;fontSize=11" parent="7oJ1Z98XVnd3HlHeFV2i-9" vertex="1">
          <mxGeometry width="240" height="20" as="geometry" />
        </mxCell>
        <mxCell id="7oJ1Z98XVnd3HlHeFV2i-11" value="" style="rounded=1;arcSize=9;align=left;spacingLeft=5;strokeColor=#660066;html=1;strokeWidth=2;fontSize=12" parent="7oJ1Z98XVnd3HlHeFV2i-9" vertex="1">
          <mxGeometry y="20" width="290" height="40" as="geometry" />
        </mxCell>
        <mxCell id="7oJ1Z98XVnd3HlHeFV2i-19" value="Enabled" style="html=1;shadow=0;dashed=0;shape=mxgraph.bootstrap.rrect;rSize=5;strokeColor=none;strokeWidth=1;fillColor=#A200A2;fontColor=#FFFFFF;whiteSpace=wrap;align=center;verticalAlign=middle;spacingLeft=0;fontStyle=0;fontSize=16;spacing=5;" parent="1" vertex="1">
          <mxGeometry x="610" y="400" width="80" height="40" as="geometry" />
        </mxCell>
        <mxCell id="bTMJIVY4iZZyVwyFY7Kp-1" value="" style="group;fontSize=19;fillColor=default;" parent="1" vertex="1" connectable="0">
          <mxGeometry x="50" y="940" width="400" height="800" as="geometry" />
        </mxCell>
        <mxCell id="7oJ1Z98XVnd3HlHeFV2i-1" value="" style="verticalLabelPosition=bottom;verticalAlign=top;html=1;shadow=0;dashed=0;strokeWidth=1;shape=mxgraph.android.phone2;strokeColor=#c0c0c0;" parent="bTMJIVY4iZZyVwyFY7Kp-1" vertex="1">
          <mxGeometry width="400" height="800" as="geometry" />
        </mxCell>
        <mxCell id="7oJ1Z98XVnd3HlHeFV2i-3" value="Collector - Login" style="rounded=0;whiteSpace=wrap;html=1;fontSize=20;fillColor=#790179;fontColor=#FFFFFF;" parent="bTMJIVY4iZZyVwyFY7Kp-1" vertex="1">
          <mxGeometry x="20" y="80" width="360" height="50" as="geometry" />
        </mxCell>
        <mxCell id="bTMJIVY4iZZyVwyFY7Kp-12" value="" style="group" parent="bTMJIVY4iZZyVwyFY7Kp-1" vertex="1" connectable="0">
          <mxGeometry x="30" y="150" width="340" height="60" as="geometry" />
        </mxCell>
        <mxCell id="bTMJIVY4iZZyVwyFY7Kp-13" value="Scan" style="html=1;shadow=0;dashed=0;shape=mxgraph.bootstrap.rrect;rSize=5;strokeColor=#9673a6;strokeWidth=1;fillColor=#A200A2;whiteSpace=wrap;align=center;verticalAlign=middle;spacingLeft=0;fontStyle=0;fontSize=16;spacing=5;fontColor=#FFFFFF;" parent="bTMJIVY4iZZyVwyFY7Kp-12" vertex="1">
          <mxGeometry x="257.9310344827586" y="20" width="82.06896551724138" height="40" as="geometry" />
        </mxCell>
        <mxCell id="bTMJIVY4iZZyVwyFY7Kp-15" value="ABC123" style="rounded=1;arcSize=9;align=left;spacingLeft=5;strokeColor=#660066;html=1;strokeWidth=2;fontSize=12" parent="bTMJIVY4iZZyVwyFY7Kp-12" vertex="1">
          <mxGeometry y="20" width="246.20689655172416" height="40" as="geometry" />
        </mxCell>
        <mxCell id="bTMJIVY4iZZyVwyFY7Kp-14" value="&lt;span style=&quot;font-size: 15px;&quot;&gt;User code&lt;/span&gt;" style="fillColor=none;strokeColor=none;html=1;fontSize=12;fontStyle=0;align=left;fontColor=#1A1A1A;fontStyle=1;fontSize=11" parent="bTMJIVY4iZZyVwyFY7Kp-12" vertex="1">
          <mxGeometry width="281.3793103448276" height="20" as="geometry" />
        </mxCell>
        <mxCell id="bTMJIVY4iZZyVwyFY7Kp-16" value="" style="group" parent="bTMJIVY4iZZyVwyFY7Kp-1" vertex="1" connectable="0">
          <mxGeometry x="30" y="230" width="340" height="60" as="geometry" />
        </mxCell>
        <mxCell id="bTMJIVY4iZZyVwyFY7Kp-17" value="Scan" style="html=1;shadow=0;dashed=0;shape=mxgraph.bootstrap.rrect;rSize=5;strokeColor=#9673a6;strokeWidth=1;fillColor=#A200A2;whiteSpace=wrap;align=center;verticalAlign=middle;spacingLeft=0;fontStyle=0;fontSize=16;spacing=5;fontColor=#FFFFFF;" parent="bTMJIVY4iZZyVwyFY7Kp-16" vertex="1">
          <mxGeometry x="257.9310344827586" y="20" width="82.06896551724138" height="40" as="geometry" />
        </mxCell>
        <mxCell id="bTMJIVY4iZZyVwyFY7Kp-18" value="ABC123" style="rounded=1;arcSize=9;align=left;spacingLeft=5;strokeColor=#660066;html=1;strokeWidth=2;fontSize=12" parent="bTMJIVY4iZZyVwyFY7Kp-16" vertex="1">
          <mxGeometry y="20" width="246.20689655172416" height="40" as="geometry" />
        </mxCell>
        <mxCell id="bTMJIVY4iZZyVwyFY7Kp-19" value="&lt;span style=&quot;font-size: 15px;&quot;&gt;Document number&lt;/span&gt;" style="fillColor=none;strokeColor=none;html=1;fontSize=12;fontStyle=0;align=left;fontColor=#1A1A1A;fontStyle=1;fontSize=11" parent="bTMJIVY4iZZyVwyFY7Kp-16" vertex="1">
          <mxGeometry width="281.3793103448276" height="20" as="geometry" />
        </mxCell>
        <mxCell id="bTMJIVY4iZZyVwyFY7Kp-56" value="Sign in" style="html=1;shadow=0;dashed=0;shape=mxgraph.bootstrap.rrect;rSize=5;strokeColor=none;strokeWidth=1;fillColor=#790179;fontColor=#FFFFFF;whiteSpace=wrap;align=center;verticalAlign=middle;spacingLeft=0;fontStyle=0;fontSize=16;spacing=5;" parent="bTMJIVY4iZZyVwyFY7Kp-1" vertex="1">
          <mxGeometry x="137.5" y="650" width="125" height="40" as="geometry" />
        </mxCell>
        <mxCell id="eojB_KdRLzrVqYiYOCO--15" value="Settings" style="html=1;shadow=0;dashed=0;shape=mxgraph.bootstrap.rrect;rSize=5;strokeColor=#FFFFFF;strokeWidth=1;fillColor=none;fontColor=#FFFFFF;whiteSpace=wrap;align=center;verticalAlign=middle;spacingLeft=0;fontStyle=0;fontSize=16;spacing=5;" vertex="1" parent="bTMJIVY4iZZyVwyFY7Kp-1">
          <mxGeometry x="300" y="85" width="80" height="40" as="geometry" />
        </mxCell>
        <mxCell id="bTMJIVY4iZZyVwyFY7Kp-3" value="Primary" style="rounded=1;whiteSpace=wrap;html=1;fontSize=19;fontStyle=1;fillColor=none;fontColor=#281E5D;" parent="1" vertex="1">
          <mxGeometry x="200" y="165" width="120" height="40" as="geometry" />
        </mxCell>
        <mxCell id="bTMJIVY4iZZyVwyFY7Kp-4" value="#281E5D" style="text;html=1;align=center;verticalAlign=middle;resizable=0;points=[];autosize=1;strokeColor=none;fillColor=none;" parent="1" vertex="1">
          <mxGeometry x="320" y="170" width="70" height="30" as="geometry" />
        </mxCell>
        <mxCell id="bTMJIVY4iZZyVwyFY7Kp-5" value="Accent" style="rounded=1;whiteSpace=wrap;html=1;fontSize=19;fontStyle=1;fillColor=#790179;fontColor=#ffffff;" parent="1" vertex="1">
          <mxGeometry x="200" y="215" width="120" height="40" as="geometry" />
        </mxCell>
        <mxCell id="bTMJIVY4iZZyVwyFY7Kp-6" value="#790179" style="text;html=1;align=center;verticalAlign=middle;resizable=0;points=[];autosize=1;strokeColor=none;fillColor=none;" parent="1" vertex="1">
          <mxGeometry x="320" y="220" width="70" height="30" as="geometry" />
        </mxCell>
        <mxCell id="bTMJIVY4iZZyVwyFY7Kp-7" value="Light" style="rounded=1;whiteSpace=wrap;html=1;fontSize=19;fontStyle=1;fillColor=#A200A2;fontColor=#ffffff;" parent="1" vertex="1">
          <mxGeometry x="200" y="265" width="120" height="40" as="geometry" />
        </mxCell>
        <mxCell id="bTMJIVY4iZZyVwyFY7Kp-8" value="#A200A2" style="text;html=1;align=center;verticalAlign=middle;resizable=0;points=[];autosize=1;strokeColor=none;fillColor=none;" parent="1" vertex="1">
          <mxGeometry x="320" y="270" width="70" height="30" as="geometry" />
        </mxCell>
        <mxCell id="bTMJIVY4iZZyVwyFY7Kp-9" value="Dark" style="rounded=1;whiteSpace=wrap;html=1;fontSize=19;fontStyle=1;fillColor=#ACABAF;fontColor=#ffffff;" parent="1" vertex="1">
          <mxGeometry x="200" y="315" width="120" height="40" as="geometry" />
        </mxCell>
        <mxCell id="bTMJIVY4iZZyVwyFY7Kp-10" value="#ACABAF" style="text;html=1;align=center;verticalAlign=middle;resizable=0;points=[];autosize=1;strokeColor=none;fillColor=none;" parent="1" vertex="1">
          <mxGeometry x="315" y="320" width="80" height="30" as="geometry" />
        </mxCell>
        <mxCell id="bTMJIVY4iZZyVwyFY7Kp-11" value="" style="group" parent="1" vertex="1" connectable="0">
          <mxGeometry x="610" y="160" width="290" height="60" as="geometry" />
        </mxCell>
        <mxCell id="bTMJIVY4iZZyVwyFY7Kp-2" value="Scan" style="html=1;shadow=0;dashed=0;shape=mxgraph.bootstrap.rrect;rSize=5;strokeColor=#9673a6;strokeWidth=1;fillColor=#A200A2;whiteSpace=wrap;align=center;verticalAlign=middle;spacingLeft=0;fontStyle=0;fontSize=16;spacing=5;fontColor=#FFFFFF;" parent="bTMJIVY4iZZyVwyFY7Kp-11" vertex="1">
          <mxGeometry x="220" y="20" width="70" height="40" as="geometry" />
        </mxCell>
        <mxCell id="7oJ1Z98XVnd3HlHeFV2i-6" value="&lt;font style=&quot;font-size: 15px;&quot;&gt;Input text with scanner&lt;/font&gt;" style="fillColor=none;strokeColor=none;html=1;fontSize=12;fontStyle=0;align=left;fontColor=#1A1A1A;fontStyle=1;fontSize=11" parent="bTMJIVY4iZZyVwyFY7Kp-11" vertex="1">
          <mxGeometry width="240" height="20" as="geometry" />
        </mxCell>
        <mxCell id="7oJ1Z98XVnd3HlHeFV2i-7" value="" style="rounded=1;arcSize=9;align=left;spacingLeft=5;strokeColor=#660066;html=1;strokeWidth=2;fontSize=12" parent="bTMJIVY4iZZyVwyFY7Kp-11" vertex="1">
          <mxGeometry y="20" width="210" height="40" as="geometry" />
        </mxCell>
        <mxCell id="bTMJIVY4iZZyVwyFY7Kp-20" value="Disabled" style="html=1;shadow=0;dashed=0;shape=mxgraph.bootstrap.rrect;rSize=5;strokeColor=none;strokeWidth=1;fillColor=#ACABAF;fontColor=#FFFFFF;whiteSpace=wrap;align=center;verticalAlign=middle;spacingLeft=0;fontStyle=0;fontSize=16;spacing=5;" parent="1" vertex="1">
          <mxGeometry x="750" y="400" width="80" height="40" as="geometry" />
        </mxCell>
        <mxCell id="bTMJIVY4iZZyVwyFY7Kp-61" value="" style="group" parent="1" vertex="1" connectable="0">
          <mxGeometry x="580" y="940" width="400" height="800" as="geometry" />
        </mxCell>
        <mxCell id="bTMJIVY4iZZyVwyFY7Kp-33" value="" style="group;fontSize=19;fillColor=default;container=0;" parent="bTMJIVY4iZZyVwyFY7Kp-61" vertex="1" connectable="0">
          <mxGeometry width="400" height="800" as="geometry" />
        </mxCell>
        <mxCell id="eojB_KdRLzrVqYiYOCO--44" style="edgeStyle=orthogonalEdgeStyle;rounded=0;orthogonalLoop=1;jettySize=auto;html=1;startArrow=classic;startFill=1;" edge="1" parent="bTMJIVY4iZZyVwyFY7Kp-61" source="bTMJIVY4iZZyVwyFY7Kp-34">
          <mxGeometry relative="1" as="geometry">
            <mxPoint x="540" y="400" as="targetPoint" />
          </mxGeometry>
        </mxCell>
        <mxCell id="bTMJIVY4iZZyVwyFY7Kp-34" value="" style="verticalLabelPosition=bottom;verticalAlign=top;html=1;shadow=0;dashed=0;strokeWidth=1;shape=mxgraph.android.phone2;strokeColor=#c0c0c0;" parent="bTMJIVY4iZZyVwyFY7Kp-61" vertex="1">
          <mxGeometry width="400" height="800" as="geometry" />
        </mxCell>
        <mxCell id="bTMJIVY4iZZyVwyFY7Kp-35" value="" style="rounded=0;whiteSpace=wrap;html=1;fontSize=20;fillColor=#790179;fontColor=#FFFFFF;" parent="bTMJIVY4iZZyVwyFY7Kp-61" vertex="1">
          <mxGeometry x="20" y="80" width="360" height="50" as="geometry" />
        </mxCell>
        <mxCell id="bTMJIVY4iZZyVwyFY7Kp-37" value="" style="group" parent="bTMJIVY4iZZyVwyFY7Kp-61" vertex="1" connectable="0">
          <mxGeometry x="30" y="150" width="340" height="60" as="geometry" />
        </mxCell>
        <mxCell id="bTMJIVY4iZZyVwyFY7Kp-38" value="Scan" style="html=1;shadow=0;dashed=0;shape=mxgraph.bootstrap.rrect;rSize=5;strokeColor=#9673a6;strokeWidth=1;fillColor=#A200A2;whiteSpace=wrap;align=center;verticalAlign=middle;spacingLeft=0;fontStyle=0;fontSize=16;spacing=5;fontColor=#FFFFFF;" parent="bTMJIVY4iZZyVwyFY7Kp-37" vertex="1">
          <mxGeometry x="257.9310344827586" y="20" width="82.06896551724138" height="40" as="geometry" />
        </mxCell>
        <mxCell id="bTMJIVY4iZZyVwyFY7Kp-39" value="ABC123" style="rounded=1;arcSize=9;align=left;spacingLeft=5;strokeColor=#660066;html=1;strokeWidth=2;fontSize=12" parent="bTMJIVY4iZZyVwyFY7Kp-37" vertex="1">
          <mxGeometry y="20" width="246.20689655172416" height="40" as="geometry" />
        </mxCell>
        <mxCell id="bTMJIVY4iZZyVwyFY7Kp-40" value="&lt;span style=&quot;font-size: 15px;&quot;&gt;Place code&lt;/span&gt;" style="fillColor=none;strokeColor=none;html=1;fontSize=12;fontStyle=0;align=left;fontColor=#1A1A1A;fontStyle=1;fontSize=11" parent="bTMJIVY4iZZyVwyFY7Kp-37" vertex="1">
          <mxGeometry width="281.3793103448276" height="20" as="geometry" />
        </mxCell>
        <mxCell id="bTMJIVY4iZZyVwyFY7Kp-41" value="" style="group" parent="bTMJIVY4iZZyVwyFY7Kp-61" vertex="1" connectable="0">
          <mxGeometry x="30" y="230" width="340" height="60" as="geometry" />
        </mxCell>
        <mxCell id="bTMJIVY4iZZyVwyFY7Kp-42" value="Scan" style="html=1;shadow=0;dashed=0;shape=mxgraph.bootstrap.rrect;rSize=5;strokeColor=#9673a6;strokeWidth=1;fillColor=#A200A2;whiteSpace=wrap;align=center;verticalAlign=middle;spacingLeft=0;fontStyle=0;fontSize=16;spacing=5;fontColor=#FFFFFF;" parent="bTMJIVY4iZZyVwyFY7Kp-41" vertex="1">
          <mxGeometry x="257.9310344827586" y="20" width="82.06896551724138" height="40" as="geometry" />
        </mxCell>
        <mxCell id="bTMJIVY4iZZyVwyFY7Kp-43" value="ABC123" style="rounded=1;arcSize=9;align=left;spacingLeft=5;strokeColor=#660066;html=1;strokeWidth=2;fontSize=12" parent="bTMJIVY4iZZyVwyFY7Kp-41" vertex="1">
          <mxGeometry y="20" width="246.20689655172416" height="40" as="geometry" />
        </mxCell>
        <mxCell id="bTMJIVY4iZZyVwyFY7Kp-44" value="&lt;span style=&quot;font-size: 15px;&quot;&gt;Product code&lt;/span&gt;" style="fillColor=none;strokeColor=none;html=1;fontSize=12;fontStyle=0;align=left;fontColor=#1A1A1A;fontStyle=1;fontSize=11" parent="bTMJIVY4iZZyVwyFY7Kp-41" vertex="1">
          <mxGeometry width="281.3793103448276" height="20" as="geometry" />
        </mxCell>
        <mxCell id="bTMJIVY4iZZyVwyFY7Kp-45" value="" style="group" parent="bTMJIVY4iZZyVwyFY7Kp-61" vertex="1" connectable="0">
          <mxGeometry x="30" y="310" width="340" height="60" as="geometry" />
        </mxCell>
        <mxCell id="bTMJIVY4iZZyVwyFY7Kp-46" value="+" style="html=1;shadow=0;dashed=0;shape=mxgraph.bootstrap.rrect;rSize=5;strokeColor=#9673a6;strokeWidth=1;fillColor=#A200A2;whiteSpace=wrap;align=center;verticalAlign=middle;spacingLeft=0;fontStyle=0;fontSize=26;spacing=5;fontColor=#FFFFFF;" parent="bTMJIVY4iZZyVwyFY7Kp-45" vertex="1">
          <mxGeometry x="257.9310344827586" y="20" width="82.06896551724138" height="40" as="geometry" />
        </mxCell>
        <mxCell id="bTMJIVY4iZZyVwyFY7Kp-47" value="12" style="rounded=1;arcSize=9;align=left;spacingLeft=5;strokeColor=#660066;html=1;strokeWidth=2;fontSize=12" parent="bTMJIVY4iZZyVwyFY7Kp-45" vertex="1">
          <mxGeometry y="20" width="160" height="40" as="geometry" />
        </mxCell>
        <mxCell id="bTMJIVY4iZZyVwyFY7Kp-48" value="&lt;span style=&quot;font-size: 15px;&quot;&gt;Count&lt;/span&gt;" style="fillColor=none;strokeColor=none;html=1;fontSize=12;fontStyle=0;align=left;fontColor=#1A1A1A;fontStyle=1;fontSize=11" parent="bTMJIVY4iZZyVwyFY7Kp-45" vertex="1">
          <mxGeometry width="281.3793103448276" height="20" as="geometry" />
        </mxCell>
        <mxCell id="bTMJIVY4iZZyVwyFY7Kp-49" value="-" style="html=1;shadow=0;dashed=0;shape=mxgraph.bootstrap.rrect;rSize=5;strokeColor=#9673a6;strokeWidth=1;fillColor=#A200A2;whiteSpace=wrap;align=center;verticalAlign=middle;spacingLeft=0;fontStyle=0;fontSize=26;spacing=5;fontColor=#FFFFFF;" parent="bTMJIVY4iZZyVwyFY7Kp-45" vertex="1">
          <mxGeometry x="170.0010344827586" y="20" width="82.06896551724138" height="40" as="geometry" />
        </mxCell>
        <mxCell id="bTMJIVY4iZZyVwyFY7Kp-50" value="Save" style="html=1;shadow=0;dashed=0;shape=mxgraph.bootstrap.rrect;rSize=5;strokeColor=none;strokeWidth=1;fillColor=#A200A2;fontColor=#FFFFFF;whiteSpace=wrap;align=center;verticalAlign=middle;spacingLeft=0;fontStyle=0;fontSize=16;spacing=5;" parent="bTMJIVY4iZZyVwyFY7Kp-61" vertex="1">
          <mxGeometry x="160" y="430" width="80" height="40" as="geometry" />
        </mxCell>
        <mxCell id="bTMJIVY4iZZyVwyFY7Kp-55" value="List" style="html=1;shadow=0;dashed=0;shape=mxgraph.bootstrap.rrect;rSize=5;strokeColor=none;strokeWidth=1;fillColor=#790179;fontColor=#FFFFFF;whiteSpace=wrap;align=center;verticalAlign=middle;spacingLeft=0;fontStyle=0;fontSize=16;spacing=5;" parent="bTMJIVY4iZZyVwyFY7Kp-61" vertex="1">
          <mxGeometry x="148.75" y="650" width="102.5" height="40" as="geometry" />
        </mxCell>
        <mxCell id="bTMJIVY4iZZyVwyFY7Kp-59" value="Logout" style="html=1;shadow=0;dashed=0;shape=mxgraph.bootstrap.rrect;rSize=5;strokeColor=#FFFFFF;strokeWidth=1;fillColor=none;fontColor=#FFFFFF;whiteSpace=wrap;align=center;verticalAlign=middle;spacingLeft=0;fontStyle=0;fontSize=16;spacing=5;" parent="bTMJIVY4iZZyVwyFY7Kp-61" vertex="1">
          <mxGeometry x="30" y="85" width="80" height="40" as="geometry" />
        </mxCell>
        <mxCell id="bTMJIVY4iZZyVwyFY7Kp-87" value="Collector - Storage" style="text;html=1;align=center;verticalAlign=middle;resizable=0;points=[];autosize=1;strokeColor=none;fillColor=none;fontSize=20;fontColor=#FFFFFF;" parent="bTMJIVY4iZZyVwyFY7Kp-61" vertex="1">
          <mxGeometry x="110" y="85" width="190" height="40" as="geometry" />
        </mxCell>
        <mxCell id="eojB_KdRLzrVqYiYOCO--14" value="Settings" style="html=1;shadow=0;dashed=0;shape=mxgraph.bootstrap.rrect;rSize=5;strokeColor=#FFFFFF;strokeWidth=1;fillColor=none;fontColor=#FFFFFF;whiteSpace=wrap;align=center;verticalAlign=middle;spacingLeft=0;fontStyle=0;fontSize=16;spacing=5;" vertex="1" parent="bTMJIVY4iZZyVwyFY7Kp-61">
          <mxGeometry x="290" y="85" width="80" height="40" as="geometry" />
        </mxCell>
        <mxCell id="bTMJIVY4iZZyVwyFY7Kp-60" style="edgeStyle=orthogonalEdgeStyle;rounded=0;orthogonalLoop=1;jettySize=auto;html=1;entryX=0;entryY=0.5;entryDx=0;entryDy=0;entryPerimeter=0;startArrow=classic;startFill=1;" parent="1" source="7oJ1Z98XVnd3HlHeFV2i-1" target="bTMJIVY4iZZyVwyFY7Kp-34" edge="1">
          <mxGeometry relative="1" as="geometry">
            <mxPoint x="640" y="1340" as="targetPoint" />
          </mxGeometry>
        </mxCell>
        <mxCell id="QDevMlBRMTz1o7Cnrem7-2" value="Storage collector mobile app - UI" style="text;html=1;align=center;verticalAlign=middle;resizable=0;points=[];autosize=1;strokeColor=none;fillColor=none;fontSize=28;" parent="1" vertex="1">
          <mxGeometry x="585" y="14" width="430" height="50" as="geometry" />
        </mxCell>
        <mxCell id="QDevMlBRMTz1o7Cnrem7-3" value="Title" style="rounded=0;whiteSpace=wrap;html=1;fontSize=20;fillColor=#790179;fontColor=#FFFFFF;" parent="1" vertex="1">
          <mxGeometry x="600" y="510" width="360" height="50" as="geometry" />
        </mxCell>
        <mxCell id="QDevMlBRMTz1o7Cnrem7-6" value="" style="group" parent="1" vertex="1" connectable="0">
          <mxGeometry x="1170" y="160" width="320" height="260" as="geometry" />
        </mxCell>
        <mxCell id="QDevMlBRMTz1o7Cnrem7-4" value="Popup" style="rounded=1;whiteSpace=wrap;html=1;fontSize=30;" parent="QDevMlBRMTz1o7Cnrem7-6" vertex="1">
          <mxGeometry width="320" height="260" as="geometry" />
        </mxCell>
        <mxCell id="QDevMlBRMTz1o7Cnrem7-5" value="OK" style="html=1;shadow=0;dashed=0;shape=mxgraph.bootstrap.rrect;rSize=5;strokeColor=none;strokeWidth=1;fillColor=#A200A2;fontColor=#FFFFFF;whiteSpace=wrap;align=center;verticalAlign=middle;spacingLeft=0;fontStyle=0;fontSize=16;spacing=5;" parent="QDevMlBRMTz1o7Cnrem7-6" vertex="1">
          <mxGeometry x="120" y="200" width="80" height="40" as="geometry" />
        </mxCell>
        <mxCell id="QDevMlBRMTz1o7Cnrem7-7" value="" style="group;fontSize=19;fillColor=default;" parent="1" vertex="1" connectable="0">
          <mxGeometry x="50" y="1850" width="400" height="800" as="geometry" />
        </mxCell>
        <mxCell id="QDevMlBRMTz1o7Cnrem7-8" value="" style="verticalLabelPosition=bottom;verticalAlign=top;html=1;shadow=0;dashed=0;strokeWidth=1;shape=mxgraph.android.phone2;strokeColor=#c0c0c0;" parent="QDevMlBRMTz1o7Cnrem7-7" vertex="1">
          <mxGeometry width="400" height="800" as="geometry" />
        </mxCell>
        <mxCell id="QDevMlBRMTz1o7Cnrem7-9" value="Storage collector - Settings" style="rounded=0;whiteSpace=wrap;html=1;fontSize=20;fillColor=#790179;fontColor=#FFFFFF;" parent="QDevMlBRMTz1o7Cnrem7-7" vertex="1">
          <mxGeometry x="20" y="80" width="360" height="50" as="geometry" />
        </mxCell>
        <mxCell id="QDevMlBRMTz1o7Cnrem7-18" value="Go back" style="html=1;shadow=0;dashed=0;shape=mxgraph.bootstrap.rrect;rSize=5;strokeColor=none;strokeWidth=1;fillColor=#790179;fontColor=#FFFFFF;whiteSpace=wrap;align=center;verticalAlign=middle;spacingLeft=0;fontStyle=0;fontSize=16;spacing=5;" parent="QDevMlBRMTz1o7Cnrem7-7" vertex="1">
          <mxGeometry x="115" y="650" width="170" height="40" as="geometry" />
        </mxCell>
        <mxCell id="QDevMlBRMTz1o7Cnrem7-24" value="" style="group" parent="QDevMlBRMTz1o7Cnrem7-7" vertex="1" connectable="0">
          <mxGeometry x="55" y="150" width="290" height="60" as="geometry" />
        </mxCell>
        <mxCell id="QDevMlBRMTz1o7Cnrem7-25" value="&lt;font style=&quot;font-size: 15px;&quot;&gt;Language&lt;/font&gt;" style="fillColor=none;strokeColor=none;html=1;fontSize=12;fontStyle=0;align=left;fontColor=#1A1A1A;fontStyle=1;fontSize=11" parent="QDevMlBRMTz1o7Cnrem7-24" vertex="1">
          <mxGeometry width="240" height="20" as="geometry" />
        </mxCell>
        <mxCell id="QDevMlBRMTz1o7Cnrem7-26" value="Choose ..." style="rounded=1;arcSize=9;align=left;spacingLeft=5;strokeColor=#660066;html=1;strokeWidth=2;fontSize=12" parent="QDevMlBRMTz1o7Cnrem7-24" vertex="1">
          <mxGeometry y="20" width="290" height="40" as="geometry" />
        </mxCell>
        <mxCell id="QDevMlBRMTz1o7Cnrem7-27" value="&amp;gt;" style="text;html=1;align=center;verticalAlign=middle;resizable=0;points=[];autosize=1;strokeColor=none;fillColor=none;rotation=90;fontSize=18;" parent="QDevMlBRMTz1o7Cnrem7-24" vertex="1">
          <mxGeometry x="260" y="20" width="30" height="40" as="geometry" />
        </mxCell>
        <mxCell id="QDevMlBRMTz1o7Cnrem7-31" value="App version: v0.0.1" style="text;html=1;align=center;verticalAlign=middle;resizable=0;points=[];autosize=1;strokeColor=none;fillColor=none;fontSize=14;" parent="QDevMlBRMTz1o7Cnrem7-7" vertex="1">
          <mxGeometry x="55" y="600" width="140" height="30" as="geometry" />
        </mxCell>
        <mxCell id="QDevMlBRMTz1o7Cnrem7-19" value="" style="group" parent="1" vertex="1" connectable="0">
          <mxGeometry x="610" y="630" width="290" height="60" as="geometry" />
        </mxCell>
        <mxCell id="QDevMlBRMTz1o7Cnrem7-20" value="&lt;font style=&quot;font-size: 15px;&quot;&gt;Selection&lt;/font&gt;" style="fillColor=none;strokeColor=none;html=1;fontSize=12;fontStyle=0;align=left;fontColor=#1A1A1A;fontStyle=1;fontSize=11" parent="QDevMlBRMTz1o7Cnrem7-19" vertex="1">
          <mxGeometry width="240" height="20" as="geometry" />
        </mxCell>
        <mxCell id="QDevMlBRMTz1o7Cnrem7-21" value="Choose ..." style="rounded=1;arcSize=9;align=left;spacingLeft=5;strokeColor=#660066;html=1;strokeWidth=2;fontSize=12" parent="QDevMlBRMTz1o7Cnrem7-19" vertex="1">
          <mxGeometry y="20" width="290" height="40" as="geometry" />
        </mxCell>
        <mxCell id="QDevMlBRMTz1o7Cnrem7-22" value="&amp;gt;" style="text;html=1;align=center;verticalAlign=middle;resizable=0;points=[];autosize=1;strokeColor=none;fillColor=none;rotation=90;fontSize=18;" parent="QDevMlBRMTz1o7Cnrem7-19" vertex="1">
          <mxGeometry x="260" y="20" width="30" height="40" as="geometry" />
        </mxCell>
        <mxCell id="QDevMlBRMTz1o7Cnrem7-23" value="License same as application" style="text;html=1;align=center;verticalAlign=middle;resizable=0;points=[];autosize=1;strokeColor=none;fillColor=none;fontSize=19;" parent="1" vertex="1">
          <mxGeometry x="670" y="64" width="260" height="40" as="geometry" />
        </mxCell>
        <mxCell id="eojB_KdRLzrVqYiYOCO--1" value="" style="group;fontSize=19;fillColor=default;" vertex="1" connectable="0" parent="1">
          <mxGeometry x="1140" y="950" width="400" height="800" as="geometry" />
        </mxCell>
        <mxCell id="eojB_KdRLzrVqYiYOCO--2" value="" style="verticalLabelPosition=bottom;verticalAlign=top;html=1;shadow=0;dashed=0;strokeWidth=1;shape=mxgraph.android.phone2;strokeColor=#c0c0c0;" vertex="1" parent="eojB_KdRLzrVqYiYOCO--1">
          <mxGeometry width="400" height="800" as="geometry" />
        </mxCell>
        <mxCell id="eojB_KdRLzrVqYiYOCO--3" value="Collector - Items" style="rounded=0;whiteSpace=wrap;html=1;fontSize=20;fillColor=#790179;fontColor=#FFFFFF;" vertex="1" parent="eojB_KdRLzrVqYiYOCO--1">
          <mxGeometry x="20" y="80" width="360" height="50" as="geometry" />
        </mxCell>
        <mxCell id="eojB_KdRLzrVqYiYOCO--12" value="Send" style="html=1;shadow=0;dashed=0;shape=mxgraph.bootstrap.rrect;rSize=5;strokeColor=none;strokeWidth=1;fillColor=#790179;fontColor=#FFFFFF;whiteSpace=wrap;align=center;verticalAlign=middle;spacingLeft=0;fontStyle=0;fontSize=16;spacing=5;" vertex="1" parent="eojB_KdRLzrVqYiYOCO--1">
          <mxGeometry x="137.5" y="650" width="125" height="40" as="geometry" />
        </mxCell>
        <mxCell id="eojB_KdRLzrVqYiYOCO--16" value="Settings" style="html=1;shadow=0;dashed=0;shape=mxgraph.bootstrap.rrect;rSize=5;strokeColor=#FFFFFF;strokeWidth=1;fillColor=none;fontColor=#FFFFFF;whiteSpace=wrap;align=center;verticalAlign=middle;spacingLeft=0;fontStyle=0;fontSize=16;spacing=5;" vertex="1" parent="eojB_KdRLzrVqYiYOCO--1">
          <mxGeometry x="300" y="85" width="80" height="40" as="geometry" />
        </mxCell>
        <mxCell id="eojB_KdRLzrVqYiYOCO--24" value="" style="group" vertex="1" connectable="0" parent="eojB_KdRLzrVqYiYOCO--1">
          <mxGeometry x="35" y="160" width="330" height="80" as="geometry" />
        </mxCell>
        <mxCell id="eojB_KdRLzrVqYiYOCO--17" value="" style="rounded=1;whiteSpace=wrap;html=1;" vertex="1" parent="eojB_KdRLzrVqYiYOCO--24">
          <mxGeometry width="330" height="80" as="geometry" />
        </mxCell>
        <mxCell id="eojB_KdRLzrVqYiYOCO--18" value="UserCode" style="text;html=1;align=center;verticalAlign=middle;resizable=0;points=[];autosize=1;strokeColor=none;fillColor=none;fontSize=13;fontStyle=1" vertex="1" parent="eojB_KdRLzrVqYiYOCO--24">
          <mxGeometry width="80" height="30" as="geometry" />
        </mxCell>
        <mxCell id="eojB_KdRLzrVqYiYOCO--19" value="Document number" style="text;html=1;align=center;verticalAlign=middle;resizable=0;points=[];autosize=1;strokeColor=none;fillColor=none;fontSize=13;fontStyle=1" vertex="1" parent="eojB_KdRLzrVqYiYOCO--24">
          <mxGeometry x="90" width="140" height="30" as="geometry" />
        </mxCell>
        <mxCell id="eojB_KdRLzrVqYiYOCO--20" value="Place code" style="text;html=1;align=center;verticalAlign=middle;resizable=0;points=[];autosize=1;strokeColor=none;fillColor=none;fontSize=13;fontStyle=1" vertex="1" parent="eojB_KdRLzrVqYiYOCO--24">
          <mxGeometry x="240" width="90" height="30" as="geometry" />
        </mxCell>
        <mxCell id="eojB_KdRLzrVqYiYOCO--21" value="Product code" style="text;html=1;align=center;verticalAlign=middle;resizable=0;points=[];autosize=1;strokeColor=none;fillColor=none;fontSize=13;fontStyle=1" vertex="1" parent="eojB_KdRLzrVqYiYOCO--24">
          <mxGeometry y="38" width="110" height="30" as="geometry" />
        </mxCell>
        <mxCell id="eojB_KdRLzrVqYiYOCO--22" value="Count" style="text;html=1;align=center;verticalAlign=middle;resizable=0;points=[];autosize=1;strokeColor=none;fillColor=none;fontSize=13;fontStyle=1" vertex="1" parent="eojB_KdRLzrVqYiYOCO--24">
          <mxGeometry x="110" y="38" width="60" height="30" as="geometry" />
        </mxCell>
        <mxCell id="eojB_KdRLzrVqYiYOCO--23" value="Delete" style="html=1;shadow=0;dashed=0;shape=mxgraph.bootstrap.rrect;rSize=5;strokeColor=#9673a6;strokeWidth=1;fillColor=#A200A2;whiteSpace=wrap;align=center;verticalAlign=middle;spacingLeft=0;fontStyle=0;fontSize=16;spacing=5;fontColor=#FFFFFF;" vertex="1" parent="eojB_KdRLzrVqYiYOCO--24">
          <mxGeometry x="240" y="40" width="82.07" height="33" as="geometry" />
        </mxCell>
        <mxCell id="eojB_KdRLzrVqYiYOCO--26" value="" style="group" vertex="1" connectable="0" parent="eojB_KdRLzrVqYiYOCO--1">
          <mxGeometry x="35" y="270" width="330" height="80" as="geometry" />
        </mxCell>
        <mxCell id="eojB_KdRLzrVqYiYOCO--27" value="" style="rounded=1;whiteSpace=wrap;html=1;" vertex="1" parent="eojB_KdRLzrVqYiYOCO--26">
          <mxGeometry width="330" height="80" as="geometry" />
        </mxCell>
        <mxCell id="eojB_KdRLzrVqYiYOCO--28" value="UserCode" style="text;html=1;align=center;verticalAlign=middle;resizable=0;points=[];autosize=1;strokeColor=none;fillColor=none;fontSize=13;fontStyle=1" vertex="1" parent="eojB_KdRLzrVqYiYOCO--26">
          <mxGeometry width="80" height="30" as="geometry" />
        </mxCell>
        <mxCell id="eojB_KdRLzrVqYiYOCO--29" value="Document number" style="text;html=1;align=center;verticalAlign=middle;resizable=0;points=[];autosize=1;strokeColor=none;fillColor=none;fontSize=13;fontStyle=1" vertex="1" parent="eojB_KdRLzrVqYiYOCO--26">
          <mxGeometry x="90" width="140" height="30" as="geometry" />
        </mxCell>
        <mxCell id="eojB_KdRLzrVqYiYOCO--30" value="Place code" style="text;html=1;align=center;verticalAlign=middle;resizable=0;points=[];autosize=1;strokeColor=none;fillColor=none;fontSize=13;fontStyle=1" vertex="1" parent="eojB_KdRLzrVqYiYOCO--26">
          <mxGeometry x="240" width="90" height="30" as="geometry" />
        </mxCell>
        <mxCell id="eojB_KdRLzrVqYiYOCO--31" value="Product code" style="text;html=1;align=center;verticalAlign=middle;resizable=0;points=[];autosize=1;strokeColor=none;fillColor=none;fontSize=13;fontStyle=1" vertex="1" parent="eojB_KdRLzrVqYiYOCO--26">
          <mxGeometry y="38" width="110" height="30" as="geometry" />
        </mxCell>
        <mxCell id="eojB_KdRLzrVqYiYOCO--32" value="Count" style="text;html=1;align=center;verticalAlign=middle;resizable=0;points=[];autosize=1;strokeColor=none;fillColor=none;fontSize=13;fontStyle=1" vertex="1" parent="eojB_KdRLzrVqYiYOCO--26">
          <mxGeometry x="110" y="38" width="60" height="30" as="geometry" />
        </mxCell>
        <mxCell id="eojB_KdRLzrVqYiYOCO--33" value="Delete" style="html=1;shadow=0;dashed=0;shape=mxgraph.bootstrap.rrect;rSize=5;strokeColor=#9673a6;strokeWidth=1;fillColor=#A200A2;whiteSpace=wrap;align=center;verticalAlign=middle;spacingLeft=0;fontStyle=0;fontSize=16;spacing=5;fontColor=#FFFFFF;" vertex="1" parent="eojB_KdRLzrVqYiYOCO--26">
          <mxGeometry x="240" y="40" width="82.07" height="33" as="geometry" />
        </mxCell>
        <mxCell id="eojB_KdRLzrVqYiYOCO--35" value="" style="group" vertex="1" connectable="0" parent="eojB_KdRLzrVqYiYOCO--1">
          <mxGeometry x="35" y="370" width="330" height="80" as="geometry" />
        </mxCell>
        <mxCell id="eojB_KdRLzrVqYiYOCO--36" value="" style="rounded=1;whiteSpace=wrap;html=1;" vertex="1" parent="eojB_KdRLzrVqYiYOCO--35">
          <mxGeometry width="330" height="80" as="geometry" />
        </mxCell>
        <mxCell id="eojB_KdRLzrVqYiYOCO--37" value="UserCode" style="text;html=1;align=center;verticalAlign=middle;resizable=0;points=[];autosize=1;strokeColor=none;fillColor=none;fontSize=13;fontStyle=1" vertex="1" parent="eojB_KdRLzrVqYiYOCO--35">
          <mxGeometry width="80" height="30" as="geometry" />
        </mxCell>
        <mxCell id="eojB_KdRLzrVqYiYOCO--38" value="Document number" style="text;html=1;align=center;verticalAlign=middle;resizable=0;points=[];autosize=1;strokeColor=none;fillColor=none;fontSize=13;fontStyle=1" vertex="1" parent="eojB_KdRLzrVqYiYOCO--35">
          <mxGeometry x="90" width="140" height="30" as="geometry" />
        </mxCell>
        <mxCell id="eojB_KdRLzrVqYiYOCO--39" value="Place code" style="text;html=1;align=center;verticalAlign=middle;resizable=0;points=[];autosize=1;strokeColor=none;fillColor=none;fontSize=13;fontStyle=1" vertex="1" parent="eojB_KdRLzrVqYiYOCO--35">
          <mxGeometry x="240" width="90" height="30" as="geometry" />
        </mxCell>
        <mxCell id="eojB_KdRLzrVqYiYOCO--40" value="Product code" style="text;html=1;align=center;verticalAlign=middle;resizable=0;points=[];autosize=1;strokeColor=none;fillColor=none;fontSize=13;fontStyle=1" vertex="1" parent="eojB_KdRLzrVqYiYOCO--35">
          <mxGeometry y="38" width="110" height="30" as="geometry" />
        </mxCell>
        <mxCell id="eojB_KdRLzrVqYiYOCO--41" value="Count" style="text;html=1;align=center;verticalAlign=middle;resizable=0;points=[];autosize=1;strokeColor=none;fillColor=none;fontSize=13;fontStyle=1" vertex="1" parent="eojB_KdRLzrVqYiYOCO--35">
          <mxGeometry x="110" y="38" width="60" height="30" as="geometry" />
        </mxCell>
        <mxCell id="eojB_KdRLzrVqYiYOCO--42" value="Delete" style="html=1;shadow=0;dashed=0;shape=mxgraph.bootstrap.rrect;rSize=5;strokeColor=#9673a6;strokeWidth=1;fillColor=#A200A2;whiteSpace=wrap;align=center;verticalAlign=middle;spacingLeft=0;fontStyle=0;fontSize=16;spacing=5;fontColor=#FFFFFF;" vertex="1" parent="eojB_KdRLzrVqYiYOCO--35">
          <mxGeometry x="240" y="40" width="82.07" height="33" as="geometry" />
        </mxCell>
        <mxCell id="eojB_KdRLzrVqYiYOCO--43" value="Add" style="html=1;shadow=0;dashed=0;shape=mxgraph.bootstrap.rrect;rSize=5;strokeColor=#FFFFFF;strokeWidth=1;fillColor=none;fontColor=#FFFFFF;whiteSpace=wrap;align=center;verticalAlign=middle;spacingLeft=0;fontStyle=0;fontSize=16;spacing=5;" vertex="1" parent="eojB_KdRLzrVqYiYOCO--1">
          <mxGeometry x="28" y="85" width="80" height="40" as="geometry" />
        </mxCell>
      </root>
    </mxGraphModel>
  </diagram>
</mxfile>
